\relax 
\citation{cormen}
\citation{rose}
\citation{habib}
\@writefile{toc}{\contentsline {section}{\numberline {1}Introduction}{1}}
\citation{rose}
\citation{gilmore}
\citation{habib}
\citation{naor}
\citation{klein}
\citation{nvSpec}
\citation{nvidia1}
\citation{nvidia2}
\citation{rose}
\@writefile{toc}{\contentsline {section}{\numberline {2}CUDA Programming}{3}}
\@writefile{toc}{\contentsline {section}{\numberline {3}Lexicographic Breadth-First Search}{3}}
\citation{rose}
\citation{habib}
\newlabel{lemma:LB}{{3.1}{4}}
\@writefile{loa}{\contentsline {algorithm}{\numberline {1}{\ignorespaces Lexicographic Breadth-Frist Search algorithm}}{4}}
\newlabel{alg:lexbfs}{{1}{4}}
\@writefile{loa}{\contentsline {algorithm}{\numberline {2}{\ignorespaces The LexBFS algorithm using partition refinement}}{5}}
\newlabel{alg:lexbfs2}{{2}{5}}
\@writefile{toc}{\contentsline {section}{\numberline {4}Chordal graphs}{5}}
\newlabel{obs:peo}{{4.1}{5}}
\citation{rose}
\newlabel{tw:rtl}{{4.2}{6}}
\@writefile{loa}{\contentsline {algorithm}{\numberline {3}{\ignorespaces Chordality test}}{6}}
\newlabel{alg:test}{{3}{6}}
\@writefile{toc}{\contentsline {section}{\numberline {5}Parallel chordality test with CUDA}{7}}
\@writefile{toc}{\contentsline {subsection}{\numberline {5.1}Parallel partition refinement technique}{7}}
\@writefile{loa}{\contentsline {algorithm}{\numberline {4}{\ignorespaces Parallel Lexicographic Breadth-First Search algorithm}}{7}}
\newlabel{alg:pLexBFS}{{4}{7}}
\@writefile{loa}{\contentsline {algorithm}{\numberline {5}{\ignorespaces Parallel LexBFS algorithm: GPU kernels}}{8}}
\newlabel{alg:pLexBFSDev}{{5}{8}}
\@writefile{toc}{\contentsline {subsubsection}{\numberline {5.1.1}Choosing the\nobreakspace  {}pivot vertex}{9}}
\@writefile{toc}{\contentsline {subsubsection}{\numberline {5.1.2}Partition}{9}}
\@writefile{lof}{\contentsline {figure}{\numberline {1}{\ignorespaces Insert a new class $new\_class$ into the\nobreakspace  {}list $L$}}{10}}
\newlabel{fig:insert}{{1}{10}}
\@writefile{toc}{\contentsline {subsubsection}{\numberline {5.1.3}Empty classes removal}{10}}
\newlabel{obs:remove}{{5.1}{10}}
\citation{habib}
\@writefile{toc}{\contentsline {subsection}{\numberline {5.2}Parallel test for perfect elimination order}{11}}
\@writefile{toc}{\contentsline {section}{\numberline {6}Tests and results}{11}}
\@writefile{loa}{\contentsline {algorithm}{\numberline {6}{\ignorespaces Device kernels of Parallel Test for Perfect Elimination Order}}{12}}
\newlabel{alg:testpeo}{{6}{12}}
\@writefile{toc}{\contentsline {subsection}{\numberline {6.1}Complete graphs}{13}}
\@writefile{lof}{\contentsline {figure}{\numberline {2}{\ignorespaces Complete graphs}}{13}}
\newlabel{fig:kliki}{{2}{13}}
\@writefile{toc}{\contentsline {subsection}{\numberline {6.2}Dense graphs}{14}}
\@writefile{lof}{\contentsline {figure}{\numberline {3}{\ignorespaces Dense random graphs: $n=10000$, $m = O(n^2)$.}}{14}}
\newlabel{fig:dense}{{3}{14}}
\@writefile{toc}{\contentsline {subsection}{\numberline {6.3}Sparse graphs}{15}}
\@writefile{lof}{\contentsline {figure}{\numberline {4}{\ignorespaces Sparse graphs: $n=10000$, $m=20*n$.}}{15}}
\newlabel{fig:sparse}{{4}{15}}
\@writefile{toc}{\contentsline {subsection}{\numberline {6.4}Random chordal graphs}{16}}
\@writefile{lof}{\contentsline {figure}{\numberline {5}{\ignorespaces Random chordal graphs, n=10000.}}{16}}
\newlabel{fig:chord}{{5}{16}}
\bibcite{cormen}{1}
\bibcite{gilmore}{2}
\bibcite{habib}{3}
\bibcite{klein}{4}
\bibcite{naor}{5}
\bibcite{nvidia1}{6}
\bibcite{nvidia2}{7}
\bibcite{nvSpec}{8}
\bibcite{rose}{9}
\bibcite{tarjan}{10}
\@writefile{toc}{\contentsline {section}{\numberline {7}Conclusion and Future Work}{17}}
